Applied mixed modelling with R
…
---

# Logistic regression &mdash; *Darlingtonia*

``` r
wasp <- read_csv("data/darlingtonia.csv", comment = "#",
                 col_types = "dl")
wasp
```

```
## # A tibble: 42 × 2
##    leafHeight visited
##         <dbl> <lgl>  
##  1         67 TRUE   
##  2         84 TRUE   
##  3         49 TRUE   
##  4         70 TRUE   
##  5         77 TRUE   
##  6         77 TRUE   
##  7         66 TRUE   
##  8         65 TRUE   
##  9         53 TRUE   
## 10         57 TRUE   
## # ℹ 32 more rows
```
…
---

# Clover seeds

``` r
clover
```

```
## # A tibble: 240 × 8
##    species       replication  time nhard nsoft fspecies      freplication ftime
##    <chr>               <dbl> <dbl> <dbl> <dbl> <fct>         <fct>        <fct>
##  1 T. glomeratum           1     0    98     2 T. glomeratum 1            0    
##  2 T. glomeratum           2     0    99     1 T. glomeratum 2            0    
##  3 T. glomeratum           3     0    99     1 T. glomeratum 3            0    
##  4 T. glomeratum           4     0    99     1 T. glomeratum 4            0    
##  5 T. spumosum             1     0    94     6 T. spumosum   1            0    
##  6 T. spumosum             2     0    93     7 T. spumosum   2            0    
##  7 T. spumosum             3     0    95     5 T. spumosum   3            0    
##  8 T. spumosum             4     0    96     4 T. spumosum   4            0    
##  9 T. hirtum               1     0    88    12 T. hirtum     1            0    
## 10 T. hirtum               2     0    89    11 T. hirtum     2            0    
## # ℹ 230 more rows
```
…
